uc_P3/CodigoMorse_RicoTamara-CORREGIDO.vcd
$version Generated by Wokwi.com $end
$date Fri, 04 Mar 2022 07:11:58 GMT $end
$timescale 1ns $end
$scope module logic $end
$var wire 1 ! D0 $end
$upscope $end
$enddefinitions $end
#0
0!
#42791250
1!
#42828025
0!
#3042455175
1!
#4542451050
0!
#6042454800
1!
#6542450550
0!
#7042450175
1!
#8542451050
0!
#10042454800
1!
#11542450550
0!
#12042450175
1!
#13542451050
0!
#15042454800
1!
#15542450550
0!
#16042450175
1!
#17542451050
0!
#19042456300
1!
#19542450550
0!
#20042450175
1!
#21542450550
0!
#22042450175
1!
#22542451050
0!
#24042454800
1!
#24542450550
0!
#25042450175
1!
#26542451050
0!
#29542454800
1!
#30042450550
0!
#30542450175
1!
#31042451050
0!
#32542456925
1!
#33042450550
0!
#33542450175
1!
#35042450550
0!
#35542450175
1!
#36042450550
0!
#36542450175
1!
#37042451050
0!
#38542456925
1!
#39042450550
0!
#39542450175
1!
#41042450550
0!
#41542450175
1!
#42042450550
0!
#42542450175
1!
#43042451050
0!
#44542454800
1!
#45042450550
0!
#45542450175
1!
#46042451050
0!
#47542454800
1!
#48042450550
0!
#48542450175
1!
#50042451050
0!
#51542455675
1!
#53042450550
0!
#53542450175
1!
#54042451050
0!
#57042456300
1!
#57542450550
0!
#58042450175
1!
#59542450550
0!
#60042450175
1!
#60542451050
0!
#62042454800
1!
#62542450550
0!
#63042450175
1!
#63542451050
0!
#65042456675
1!
#66542450550
0!
#67042450175
1!
#67542450550
0!
#68042450175
1!
#69542450550
0!
#70042450175
1!
#70542451050
0!
#72042456050
1!
#73542450550
0!
#74042450175
1!
#75542450550
0!
#76042450175
1!
#77542451050
0!
#80542456925
1!
#81042450550
0!
#81542450175
1!
#83042450550
0!
#83542450175
1!
#84042450550
0!
#84542450175
1!
#85042451050
0!
#86542456050
1!
#88042450550
0!
#88542450175
1!
#90042450550
0!
#90542450175
1!
#92042451050
0!
#93542456925
1!
#94042450550
0!
#94542450175
1!
#96042450550
0!
#96542450175
1!
#98042450550
0!
#98542450175
1!
#99042451050
0!
#100542454175
1!
#101042451050
0!
#102542456925
1!
#104042450550
0!
#104542450175
1!
#106042450550
0!
#106542450175
1!
#107042450550
0!
#107542450175
1!
#108042451050
0!
#134980377638
0!
